822239 705223 468
410939 35086 449
108378 279980 443
958493 812457 525
142772 607231 470
520114 642396 509
971139 622626 525
537262 87959 470
165039 730057 509
966351 945313 414
152835 543751 470
314992 648293 509
89723 733748 509
58301 442605 449
75469 130182 354
725490 743972 424
679377 239656 509
870231 932647 476
158128 896707 525
996113 309065 525
321374 285168 389
631101 127771 509
115679 982523 525
612843 295345 470
129728 874618 525
490344 360226 449
462887 326684 449
660284 365441 509
784106 798958 468
60125 1846 340
375787 996748 525
629897 154891 509
87371 589921 470
451355 86425 449
397902 610041 470
869735 935688 476
378714 660531 509
192938 594202 470
365755 16479 443
855812 41190 525
748926 438482 509
626619 468648 509
720679 315952 509
366213 325622 441
203991 334071 443
603874 20707 470
751088 144374 509
528923 846834 525
943392 596824 525
144504 693307 509
699778 157905 509
150541 663097 509
750729 523432 509
20470 201154 383
734499 490847 509
334729 97510 443
530636 443325 470
459887 122953 449
473950 404831 449
495377 800550 509
871545 975535 507
979032 591558 525
798052 273093 509
974247 56208 525
766836 304393 509
330949 91697 443
473510 100920 449
716640 727297 411
546996 748731 509
297457 505921 449
137123 277665 443
253262 643456 509
718088 869017 525
249135 469983 449
156156 724114 509
808756 229465 509
724811 676999 504
447842 707270 509
71370 870670 525
272032 410707 449
737957 811747 468
909724 549989 525
122846 802565 509
799920 2751 509
59152 236592 443
652083 697196 442
142160 540909 470
878268 589725 525
121505 868617 525
3652 43881 324
754314 806209 468
321472 651825 509
840814 309864 525
940185 656894 525
418830 131785 449
525179 951234 525
218127 85109 386
698107 312280 509
330097 842840 525
651054 879669 525
914692 156448 525
157529 720255 509
308974 247316 407
129681 684947 509
172140 361598 443
516170 786995 509
184149 141869 383
434739 864445 525
245073 96070 443
855144 707367 525
395368 38654 443
295458 302155 371
347655 298483 441
673267 898939 525
873864 108363 525
336556 821409 509
808668 324599 509
439712 17879 449
782455 38041 509
448033 991277 525
569927 937610 525
442076 667709 509
299488 706424 509
494169 69302 449
47249 885967 525
189676 492997 449
355581 973106 525
151382 395441 443
900247 970109 507
48684 470613 449
132432 992027 525
961003 966592 414
328025 8197 443
835513 973894 525
431547 636407 509
33768 468847 449
949794 873461 507
822217 808153 450
762230 176699 509
763437 669463 504
543194 544485 359
114155 814468 509
338167 863468 525
603138 606831 372
294772 364381 441
66329 649048 509
996608 860518 507
447738 574970 470
734059 929135 525
706039 380176 509
989568 186430 525
649453 450962 509
729726 607773 509
923494 785980 525
281235 814259 509
330175 877519 525
316151 737741 509
384643 340842 441
330840 515632 470
744608 848718 525
509073 314951 449
553377 225126 470
362615 571995 470
417581 190175 449
834673 300652 509
222579 369701 443
540117 241412 470
950068 951567 414
281317 186366 443
961925 638959 525
796357 65545 509
95259 820680 509
562495 298288 470
41534 679427 509
287010 899842 525
176562 482003 449
451090 527887 470
522393 335736 470
746334 630612 504
637485 237224 509
648783 107840 509
253471 890746 525
332428 672008 509
301270 343843 384
577174 71314 470
34591 65907 340
616603 372638 470
58893 835965 509
112747 941110 525
894723 26435 525
853446 162150 525
712868 998923 525
913209 80209 525
561659 587033 434
507950 915415 525
964637 421393 525
802443 814199 406
31172 157823 383
207201 750277 509
610486 450763 470
41652 755684 509
422232 88138 449
796476 965395 525
419012 430876 418
870715 44122 525
738254 379404 509
991375 258941 525
101383 29291 351
582302 747107 509
955469 893341 507
336927 32715 443
191789 918442 525
76438 289266 443
78260 238808 443
172914 280390 443
927428 236483 525
768129 463004 509
848672 44730 525
848751 32295 525
146 464017 449
170390 721313 509
626931 902921 525
788869 569189 509
731709 291304 509
712440 667908 504
592818 243806 470
130039 773656 509
115310 367358 443
292483 112180 443
61124 31588 340
218553 900853 525
947784 739105 525
707822 932653 525
745337 331990 509
452953 385804 449
529555 275128 470
741760 814913 468
453478 501595 444
463598 629229 509
712948 77313 509
357401 903882 525
824679 983694 525
931521 733688 525
262419 760144 509
488267 216451 449
477434 907745 525
809348 480646 509
283817 827948 509
450381 99751 449
667610 239659 509
233291 821460 509
342718 818453 509
885875 242333 525
747290 806245 468
609431 200893 470
481834 112306 449
47642 376007 443
540550 619503 452
879240 329038 525
151621 50516 375
775924 713711 468
308736 667573 509
726281 948480 525
19518 368821 443
641467 690096 442
479489 464209 413
547858 589127 434
833148 873276 525
446359 372411 449
237552 62764 443
677174 346182 509
627238 214396 509
620636 701548 509
9288 953102 525
371498 7105 443
32500 734380 509
181609 319077 443
311453 387594 441
633068 808826 504
137441 304574 443
623620 485469 470
238995 753321 509
918852 108672 525
933789 714673 525
291583 949303 525
666135 463578 509
616135 925491 525
397440 462600 449
742524 607444 509
822065 12149 509
745608 78884 509
982455 668112 525
612931 857835 525
430238 827831 509
850746 341567 525
369845 321408 441
145386 148948 357
386933 346217 423
11158 54757 340
176395 399590 443
938360 612081 525
687529 220104 509
562440 390975 470
848162 593326 525
157510 592685 470
474152 638030 509
469668 280008 449
437826 939646 525
79626 953926 525
777602 475467 509
216623 182307 386
782619 446108 509
344424 401583 441
527258 883277 525
600143 233744 470
100769 847379 525
77165 67502 351
30316 25320 308
911 361524 443
662235 696641 442
556047 337857 470
424162 269262 449
495337 979257 525
974204 217091 525
137541 209315 383
605365 80469 470
175787 209973 373
88917 391692 443
669476 858195 525
128822 803693 509
786179 394895 509
637503 666688 442
304602 943665 525
111677 457385 449
827729 783797 468
292119 816747 509
672764 1812 509
214130 333009 443
677196 575790 509
141151 837044 509
878047 968469 507
336049 709461 509
47651 160503 383
513799 189450 470
731575 159541 509
908888 233259 525
145310 619604 470
697118 454771 509
468368 79586 449
801828 629236 504
453111 125823 449
246349 817494 509
834139 942555 525
822274 189755 509
742880 740588 362
788324 406754 509
772514 38691 509
785517 215300 509
246245 443440 449
353603 884043 525
62523 267298 443
1285 928550 525
803121 198555 509
628387 910118 525
72395 839402 525
748473 456164 509
790931 501533 509
410341 162096 449
984254 476461 525
364724 707658 509
551277 431899 470
355455 158963 443
983214 101945 525
37889 381620 443
114573 982153 525
221353 825610 509
666875 725238 504
771891 240068 509
428288 139694 449
946991 467806 525
87134 679386 509
239136 511823 449
771918 722852 468
358687 673602 509
87224 910543 525
775645 726587 468
87534 911447 525
326984 365464 441
825509 8007 509
720876 623716 509
348583 109629 443
471008 986700 525
925440 616497 525
781837 742174 468
243719 955935 525
834563 338642 509
573240 687824 509
33028 483428 449
364350 833611 509
101364 428482 449
962736 223248 525
811850 197440 509
703768 204511 509
216451 16787 386
491810 146462 449
878465 525664 525
727487 76141 509
502021 804375 509
20951 760516 509
408002 693436 509
376713 334870 441
420870 513565 470
137915 657244 509
376349 329268 441
763876 343597 509
913442 918937 383
481857 12438 449
898216 348530 525
671756 341507 509
23904 576432 470
524323 843721 525
139084 71606 354
743817 344606 509
305650 115801 443
182330 762664 509
154399 494836 449
87678 630844 509
405270 791068 509
883222 781185 525
318296 352139 441
693396 395720 509
518064 349814 470
766762 617063 509
213094 20627 383
860611 746329 525
506284 1314 449
136085 795824 509
496125 160718 449
55588 246817 443
644010 403003 509
983216 331272 525
792878 166119 509
328246 734010 509
253763 423056 449
516593 833336 509
718971 484694 509
899267 392686 525
993788 992431 352
441751 353875 449
502100 877389 525
551407 381845 470
960337 591824 525
169366 614671 470
600994 415596 470
834452 954337 525
348798 138886 443
787145 855283 525
222915 126220 386
322752 29805 443
893174 912969 476
896360 628661 525
315834 269203 407
348371 367122 410
257285 994314 525
529984 287895 470
759592 872167 525
472569 146708 449
373990 441706 449
284006 847224 525
998089 722620 525
248761 118122 443
253988 309176 407
616824 284014 470
30703 207937 383
371915 764206 509
79618 861920 525
966255 201563 525
525400 449189 470
380797 136162 443
425103 508926 444
421366 845754 525
267225 247817 407
668723 716969 504
925843 495213 525
188438 532506 470
160477 409167 443
90085 953033 525
458410 678001 509
470342 438607 444
978637 881273 507
986503 804854 525
727752 385451 509
846332 976956 507
967609 891237 507
986173 890581 507
471359 744132 509
397952 219418 443
948595 678630 525
550990 315992 470
539611 812525 509
460462 174441 449
609208 797406 509
729741 468546 509
158324 65267 383
791081 949646 525
606720 862637 525
39739 340222 443
351163 852053 525
531432 146975 470
257505 515995 470
741071 889804 525
74107 498696 449
250314 138430 443
720169 237597 509
359825 646961 509
401667 653724 509
551559 458467 470
141435 994491 525
347773 194756 443
575107 529636 452
737490 292329 509
583848 704997 509
331776 430571 449
930555 678607 525
705678 57414 509
188810 320745 443
475389 706653 509
539377 238817 470
718164 667396 504
841894 149120 525
137937 750381 509
368783 665105 509
698106 349518 509
706325 368947 509
823810 501015 509
403434 559294 470
234727 362430 441
215733 825910 509
148997 692057 509
846676 468363 525
404923 323481 441
792085 807885 468
143772 298593 443
253799 226785 443
817274 746706 468
365566 819525 509
251394 907537 525
912 700046 509
245658 355160 441
594744 355155 470
634642 490030 509
578868 277876 470
777401 935912 525
302024 994440 525
858830 421063 525
235538 472846 449
682915 55526 509
613656 581324 434
556062 986475 525
669052 890843 525
631824 465409 509
322632 430481 449
485539 145120 449
74525 649244 509
709991 20685 509
489263 245069 449
496987 824940 509
365914 340509 441
411096 247298 449
75936 59516 335
84659 374047 443
902565 738764 525
432328 6447 449
511915 979114 525
744306 502117 509
689056 568294 509
445422 716383 509
721210 571285 509
6345 974674 525
331791 481916 449
911814 788452 525
293361 482101 449
825687 912567 525
662277 384197 509
729870 750828 424
410487 440413 418
300848 555542 470
787289 542967 509
242627 271833 407
36113 727749 509
208322 550439 470
82515 208913 383
530975 724166 509
327080 178199 443
500690 685630 509
632144 340235 509
772999 983529 525
548927 666025 509
708716 757901 424
625029 994208 525
625654 209045 470
488602 227779 449
428442 758613 509
344635 807728 509
906842 450260 525
340697 750199 509
963823 14354 525
474174 575398 470
269451 34773 443
9526 958012 525
832110 903450 525
725274 419019 509
72132 557750 470
989577 843113 507
588137 402454 470
215093 190677 373
541188 298049 470
834733 792381 468
900177 204396 525
955345 291777 525
279761 660742 509
123960 317387 443
173065 390745 443
33716 639694 509
504340 948738 525
357969 13496 443
235791 703570 509
12040 241971 443
933583 46350 525
591012 20165 470
171916 376238 443
286896 960912 525
631417 468714 509
780828 588050 509
512789 910651 525
614981 253948 470
747830 809396 468
138358 346656 443
519916 521648 364
554635 352054 470
994898 653515 525
175512 319825 443
663149 343694 509
519220 535779 408
33173 807875 509
398781 716858 509
661329 151803 509
160508 970325 525
514223 698115 509
683178 188429 509
636206 349406 509
218262 75312 386
899330 148414 525
849280 885445 432
606480 195378 470
371540 214267 443
307788 278310 389
679580 248820 509
862052 687251 525
497891 756441 509
546821 547882 377
297561 836920 509
844685 316669 525
293890 412946 449
608872 353893 470
520342 215593 470
622742 375845 470
543275 696490 509
628940 795725 504
64134 717828 509
413434 128350 449
69922 324265 443
355161 364978 410
919146 617199 525
386768 873714 525
704556 795425 504
422354 219334 449
819619 631619 504
183829 551451 470
302715 608561 470
377684 317024 441
363560 470559 449
302420 755242 509
362135 700256 509
69428 264479 443
151370 788219 509
101735 311189 443
591035 473541 470
375699 878113 525
355525 181007 443
812077 303154 509
525075 738778 509
446066 248451 449
319894 522216 470
84612 304658 443
426771 947669 525
342036 421842 449
141137 416380 449
997963 279974 525
47737 840492 525
12955 801458 509
541024 888365 525
66875 674209 509
262999 610513 470
350082 762877 509
12489 409540 443
43208 682941 509
747032 901375 525
119831 602568 470
773896 696635 504
496832 921315 525
681533 571243 509
277800 623372 470
957018 942390 414
880192 810972 525
679614 238849 509
277821 326595 389
180885 214414 373
926193 460605 525
832834 721955 468
519883 56343 470
910420 819173 525
96432 983167 525
776870 73682 509
801341 658529 504
364118 375715 392
671040 797670 504
846711 677627 525
276558 345429 389
45854 129945 354
685752 407442 509
675196 83538 509
539375 454075 470
838810 169625 525
369526 215364 443
712524 248862 509
279329 823788 509
162965 956048 525
470332 248595 449
689068 65417 509
194544 896396 525
490113 107617 449
826909 744833 468
640117 161294 509
456954 471294 444
479431 369440 449
378170 554027 470
650964 522177 509
212822 426055 449
794664 520877 509
729618 458070 509
185938 93812 383
288240 841384 525
699263 165908 509
40341 446840 449
122552 628155 509
878933 695789 525
861977 994354 507
199938 336029 443
202400 666214 509
796658 949122 525
23120 736891 509
742824 65325 509
517335 398497 470
267179 762445 509
440584 746797 509
549186 439778 470
222608 323476 443
852329 484846 525
973948 215476 525
907498 163530 525
267820 157596 443
849372 729286 525
608613 602642 403
232461 261202 381
76161 68588 325
919972 329580 525
493907 56912 449
236813 247577 368
492870 556536 470
553623 938499 525
689161 919233 525
850341 806153 525
233260 425660 449
835179 634014 504
433800 431727 387
65504 967158 525
462743 389617 449
252781 914151 525
703973 219450 509
595557 419367 470
67468 753174 509
359283 352997 379
177185 217751 386
623056 979032 525
876172 807205 525
949985 260438 525
435163 146953 449
731731 240279 509
573422 531024 452
619213 573393 447
219514 510343 449
587151 778449 509
380528 243717 441
608423 96481 470
798372 336716 509
328993 211790 443
839421 813610 525
201801 415588 449
979531 109419 525
50319 629708 509
97668 378581 443
403800 778960 509
240827 844118 525
635602 430809 509
799001 886791 525
744219 499612 509
720865 762530 424
586287 1849 470
430284 221703 449
314840 814234 509
362324 330183 441
940794 405677 525
644518 138873 509
885255 142918 525
62248 501520 449
900379 976983 507
185885 204538 360
511595 127937 449
811600 505726 509
502696 873968 525
938379 242611 525
124438 307386 443
414239 590451 470
75182 263732 443
786242 816652 468
742670 729840 424
630248 499016 509
449740 329630 449
504683 359841 449
874066 829918 525
756900 66105 509
595335 653931 509
247524 751616 509
847547 593695 525
405146 934850 525
262403 520339 470
180619 6711 383
22605 114972 354
856550 253234 525
682560 492778 509
819364 280927 509
694199 948248 525
186708 549825 470
397215 925220 525
632119 598093 509
748670 997280 525
845673 50677 525
326450 229265 443
649241 527455 509
262754 822527 509
893530 45102 525
692037 195838 509
44057 759828 509
684952 836286 504
849291 293385 525
925616 11149 525
493437 492011 426
588790 761132 509
739193 42318 509
681439 627792 442
975361 659471 525
369663 156956 443
733024 483051 509
763580 398144 509
895462 162494 525
140397 164792 383
805194 502674 509
708614 641399 504
924246 389133 525
909675 25156 525
969043 770279 525
177391 202226 365
994591 659531 525
850931 660766 525
11527 778935 509
157395 876628 525
321150 385105 441
778929 583292 509
420228 89291 449
486202 737358 509
349701 35753 443
193721 896764 525
176473 564225 470
153805 188258 383
376515 463601 449
745307 244843 509
217685 18808 386
883682 218561 525
957642 291370 525
25924 758384 509
122868 978524 525
513761 89567 470
132620 353034 443
679821 726340 504
900153 244919 525
507313 347502 449
456886 86781 449
662348 793775 504
149387 151876 370
271057 223082 443
354080 852965 525
777779 766952 468
193981 506374 449
633601 565985 509
99858 223581 386
576720 655653 509
221446 740151 509
624495 453310 470
414976 446389 418
780138 257972 509
705901 116135 509
665079 340853 509
98265 947162 525
225617 826755 509
640735 342926 509
48062 558818 470
924749 287433 525
493194 554079 470
753135 705600 424
626782 415254 509
635902 642229 416
405079 275112 441
895749 298030 525
18409 511122 449
502856 539758 470
390208 795606 509
952481 100829 525
711425 32556 509
684659 995034 525
415730 533472 470
285843 157969 443
405945 348622 436
145694 40406 375
299510 556119 470
69173 590903 470
404681 289309 441
141308 391041 443
358135 771334 509
769832 421444 509
775239 632974 504
629307 126983 509
324513 969800 525
769581 881568 525
967359 613092 525
123379 110550 349
576845 103156 470
251940 923693 525
770276 94942 509
867710 775555 525
195161 107605 383
723592 548719 509
541123 761541 509
274894 494184 449
434207 951394 525
718100 357048 509
813892 595882 509
325791 413607 449
801774 597374 509
980562 989701 427
602438 353652 470
630797 854163 525
665919 983094 525
534863 992489 525
357254 762267 509
348030 317720 441
316727 661487 509
550791 589679 434
130072 358471 443
31454 101689 351
95641 525503 470
923040 523263 525
628881 354767 509
811104 925442 525
889923 650785 525
123977 510012 449
260418 213165 443
288551 238479 407
564184 396 470
902905 715895 525
75853 284355 443
764576 294330 509
929849 112332 525
340477 747143 509
629229 846794 525
577658 198492 470
143848 991686 525
149859 388285 443
652799 798689 504
